{
	"request": {
		"$id": "pig://schema/route-request-project-get.json",
		"type": "object",
		"required": [
			"params"
		],
		"properties": {
			"params": {
				"type": "object",
				"required": [
					"environment",
					"project"
				],
				"additionalProperties": false,
				"properties": {
					"environment": {
						"type": "string"
					},
					"project": {
						"type": "string"
					}
				}
			}
		}
	},
	"response": {
		"$id": "pig://schema/route-response-project-get.json"
	}
}
