{
	"settings": {
		"_library": {
			"debug": {
				"enabled": true,
				"verbose": false
			},
			"log": {
				"level": "debug",
				"transports": [
					{
						"type": "console"
					},
					{
						"type": "file",
						"overrides": {
							"filename": "development.log"
						}
					}
				]
			},
			"store": {
				"dam": "../store/development",
				"share": "../store/share"
			}
		},
		"env": {
			"desc": "dedicated development environment",
			"name": "development"
		},
		"module": {
			"mongo": {
				"database": {
					"urn:db:doc:pig": {
						"name": "pig-development"
					}
				}
			}
		}
	}
}
