{
	"settings": {
		"_library": {
			"debug": {
				"enabled": false,
				"verbose": false
			},
			"log": {
				"level": "info",
				"transports": [
					{
						"type": "file",
						"overrides": {
							"filename": "production.log"
						}
					},
					{
						"type": "http"
					}
				]
			},
			"store": {
				"dam": "../store/production",
				"share": "../store/share"
			}
		},
		"env": {
			"desc": "dedicated production environment",
			"name": "production"
		},
		"module": {
			"mongo": {
				"database": {
					"urn:db:doc:pig": {
						"name": "pig-production"
					}
				}
			}
		}
	}
}
